…
a.mod <- rand_forest() %>% 
  set_engine('randomForest') %>% 
  set_mode('classification')

a.wflow <- workflow() %>% 
  add_recipe(a.rec) %>% 
  add_model(a.mod)


a.model <- fit(a.wflow, data = cells)

predict(a.model, new_data = cells)
#> # A tibble: 2,019 x 1
#>    .pred_class
#>    <fct>      
#>  1 PS         
#>  2 PS         
#>  3 WS         
#>  4 PS         
#>  5 PS         
#>  6 WS         
#>  7 WS         
#>  8 PS         
#>  9 WS         
#> 10 WS         
#> # ... with 2,009 more rows
```
